{
"skeleton": { "hash": "dDrEe9g72tRmrZ0zJo7/nn3jZrE", "spine": "3.7.94", "width": 458.36, "height": 416.02, "images": "./nohu/", "audio": "" },
"bones": [
	{ "name": "root" },
	{ "name": "pouch", "parent": "root", "length": 158.72, "rotation": 90, "x": -1.88, "y": 20.89 },
	{ "name": "nohu", "parent": "root", "length": 102.48, "x": -7.81, "y": 40.09 },
	{ "name": "no", "parent": "nohu", "length": 105.12, "rotation": 11.52, "x": -103.53, "y": 268.21 },
	{ "name": "nohu2", "parent": "root", "length": 102.48, "rotation": 180, "x": -7.81, "y": 40.09 },
	{ "name": "hu2", "parent": "nohu2", "length": 96.75, "rotation": 172.87, "x": -123.06, "y": -277.86 }
],
"slots": [
	{ "name": "title_nohu1", "bone": "no", "attachment": "title_nohu1" },
	{ "name": "title_nohu4", "bone": "hu2", "attachment": "title_nohu2" },
	{ "name": "pouch", "bone": "pouch", "attachment": "pouch" }
],
"skins": {
	"default": {
		"pouch": {
			"pouch": { "x": 111.11, "y": -4.88, "rotation": -90, "width": 275, "height": 272 }
		},
		"title_nohu1": {
			"title_nohu1": { "x": -9.02, "y": 15.32, "rotation": -11.52, "width": 248, "height": 181 }
		},
		"title_nohu4": {
			"title_nohu2": { "x": -5.83, "y": -6.75, "rotation": 7.13, "width": 205, "height": 142 }
		}
	}
},
"animations": {
	"idle": {
		"bones": {
			"pouch": {
				"rotate": [
					{ "time": 0, "angle": 0 }
				],
				"translate": [
					{ "time": 0, "x": 0, "y": 0, "curve": "stepped" },
					{
						"time": 0.1333,
						"x": 0,
						"y": 0,
						"curve": [ 0.306, 0.63, 0.567, 0.99 ]
					},
					{
						"time": 0.3333,
						"x": 0,
						"y": 47.88,
						"curve": [ 0.451, 0.02, 0.942, 0.44 ]
					},
					{ "time": 0.5333, "x": 0, "y": 0 }
				],
				"scale": [
					{
						"time": 0,
						"x": 1,
						"y": 1,
						"curve": [ 0.342, 0.74, 0.75, 1 ]
					},
					{
						"time": 0.1333,
						"x": 0.834,
						"y": 1.151,
						"curve": [ 0.25, 0, 0.75, 1 ]
					},
					{
						"time": 0.2333,
						"x": 1.138,
						"y": 0.871,
						"curve": [ 0.774, 0, 0.741, 1 ]
					},
					{
						"time": 0.5333,
						"x": 1,
						"y": 1,
						"curve": [ 0.25, 0, 0.75, 1 ]
					},
					{
						"time": 0.6333,
						"x": 0.953,
						"y": 1.043,
						"curve": [ 0.351, 0.4, 0.757, 1 ]
					},
					{ "time": 0.8, "x": 1, "y": 1 }
				]
			},
			"nohu": {
				"scale": [
					{
						"time": 0,
						"x": 1,
						"y": 1,
						"curve": [ 0.25, 0, 0.75, 1 ]
					},
					{
						"time": 0.2667,
						"x": 1.1,
						"y": 1.1,
						"curve": [ 0.25, 0, 0.75, 1 ]
					},
					{
						"time": 0.5333,
						"x": 1,
						"y": 1,
						"curve": [ 0.25, 0, 0.75, 1 ]
					},
					{
						"time": 0.8,
						"x": 1.1,
						"y": 1.1,
						"curve": [ 0.25, 0, 0.75, 1 ]
					},
					{ "time": 1.0667, "x": 1, "y": 1 }
				]
			},
			"nohu2": {
				"scale": [
					{
						"time": 0,
						"x": 1.018,
						"y": 1.018,
						"curve": [ 0.379, 0.6, 0.724, 1 ]
					},
					{
						"time": 0.0667,
						"x": 1,
						"y": 1,
						"curve": [ 0.25, 0, 0.75, 1 ]
					},
					{
						"time": 0.3333,
						"x": 1.1,
						"y": 1.1,
						"curve": [ 0.25, 0, 0.75, 1 ]
					},
					{
						"time": 0.6,
						"x": 1,
						"y": 1,
						"curve": [ 0.25, 0, 0.75, 1 ]
					},
					{
						"time": 0.8667,
						"x": 1.1,
						"y": 1.1,
						"curve": [ 0.242, 0, 0.667, 0.67 ]
					},
					{ "time": 1.0667, "x": 1.018, "y": 1.018 }
				]
			},
			"no": {
				"rotate": [
					{
						"time": 0,
						"angle": 1.87,
						"curve": [ 0.382, 0.56, 0.74, 1 ]
					},
					{
						"time": 0.1,
						"angle": 0,
						"curve": [ 0.25, 0, 0.75, 1 ]
					},
					{
						"time": 0.3667,
						"angle": 5.58,
						"curve": [ 0.25, 0, 0.75, 1 ]
					},
					{
						"time": 0.6333,
						"angle": 0,
						"curve": [ 0.25, 0, 0.75, 1 ]
					},
					{
						"time": 0.9,
						"angle": 5.58,
						"curve": [ 0.244, 0, 0.641, 0.57 ]
					},
					{ "time": 1.0667, "angle": 1.87 }
				]
			},
			"hu2": {
				"rotate": [
					{
						"time": 0,
						"angle": 0,
						"curve": [ 0.25, 0, 0.75, 1 ]
					},
					{
						"time": 0.2667,
						"angle": -12.2,
						"curve": [ 0.25, 0, 0.75, 1 ]
					},
					{
						"time": 0.5333,
						"angle": 0,
						"curve": [ 0.25, 0, 0.75, 1 ]
					},
					{
						"time": 0.8,
						"angle": -12.2,
						"curve": [ 0.25, 0, 0.75, 1 ]
					},
					{ "time": 1.0667, "angle": 0 }
				]
			}
		}
	},
	"start": {
		"bones": {
			"pouch": {
				"rotate": [
					{ "time": 0, "angle": 0, "curve": "stepped" },
					{ "time": 1.0667, "angle": 0 }
				],
				"translate": [
					{ "time": 0, "x": 0, "y": 0, "curve": "stepped" },
					{
						"time": 0.1333,
						"x": 0,
						"y": 0,
						"curve": [ 0.306, 0.63, 0.567, 0.99 ]
					},
					{
						"time": 0.3333,
						"x": 0,
						"y": 47.88,
						"curve": [ 0.451, 0.02, 0.942, 0.44 ]
					},
					{ "time": 0.5333, "x": 0, "y": 0, "curve": "stepped" },
					{ "time": 1.0667, "x": 0, "y": 0 }
				],
				"scale": [
					{
						"time": 0,
						"x": 1,
						"y": 1,
						"curve": [ 0.342, 0.74, 0.75, 1 ]
					},
					{
						"time": 0.1333,
						"x": 0.834,
						"y": 1.151,
						"curve": [ 0.25, 0, 0.75, 1 ]
					},
					{
						"time": 0.2333,
						"x": 1.138,
						"y": 0.871,
						"curve": [ 0.774, 0, 0.741, 1 ]
					},
					{
						"time": 0.5333,
						"x": 1,
						"y": 1,
						"curve": [ 0.25, 0, 0.75, 1 ]
					},
					{
						"time": 0.6333,
						"x": 0.953,
						"y": 1.043,
						"curve": [ 0.351, 0.4, 0.757, 1 ]
					},
					{ "time": 0.8, "x": 1, "y": 1, "curve": "stepped" },
					{ "time": 1.0667, "x": 1, "y": 1 }
				]
			},
			"nohu": {
				"scale": [
					{
						"time": 0,
						"x": 0.171,
						"y": 0.171,
						"curve": [ 0.28, 0.66, 0.75, 1 ]
					},
					{
						"time": 0.2667,
						"x": 1.1,
						"y": 1.1,
						"curve": [ 0.25, 0, 0.75, 1 ]
					},
					{
						"time": 0.5333,
						"x": 1,
						"y": 1,
						"curve": [ 0.25, 0, 0.75, 1 ]
					},
					{
						"time": 0.8,
						"x": 1.1,
						"y": 1.1,
						"curve": [ 0.25, 0, 0.75, 1 ]
					},
					{ "time": 1.0667, "x": 1, "y": 1 }
				]
			},
			"nohu2": {
				"scale": [
					{ "time": 0, "x": 0.171, "y": 0.171, "curve": "stepped" },
					{
						"time": 0.0667,
						"x": 0.171,
						"y": 0.171,
						"curve": [ 0.28, 0.66, 0.75, 1 ]
					},
					{
						"time": 0.3333,
						"x": 1.1,
						"y": 1.1,
						"curve": [ 0.25, 0, 0.75, 1 ]
					},
					{
						"time": 0.6,
						"x": 1,
						"y": 1,
						"curve": [ 0.25, 0, 0.75, 1 ]
					},
					{
						"time": 0.8667,
						"x": 1.1,
						"y": 1.1,
						"curve": [ 0.242, 0, 0.667, 0.67 ]
					},
					{ "time": 1.0667, "x": 1.018, "y": 1.018 }
				]
			},
			"no": {
				"rotate": [
					{
						"time": 0,
						"angle": 1.87,
						"curve": [ 0.382, 0.56, 0.74, 1 ]
					},
					{
						"time": 0.1,
						"angle": 0,
						"curve": [ 0.25, 0, 0.75, 1 ]
					},
					{
						"time": 0.3667,
						"angle": 5.58,
						"curve": [ 0.25, 0, 0.75, 1 ]
					},
					{
						"time": 0.6333,
						"angle": 0,
						"curve": [ 0.25, 0, 0.75, 1 ]
					},
					{
						"time": 0.9,
						"angle": 5.58,
						"curve": [ 0.244, 0, 0.641, 0.57 ]
					},
					{ "time": 1.0667, "angle": 1.87 }
				]
			},
			"hu2": {
				"rotate": [
					{
						"time": 0,
						"angle": 0,
						"curve": [ 0.25, 0, 0.75, 1 ]
					},
					{
						"time": 0.2667,
						"angle": -12.2,
						"curve": [ 0.25, 0, 0.75, 1 ]
					},
					{
						"time": 0.5333,
						"angle": 0,
						"curve": [ 0.25, 0, 0.75, 1 ]
					},
					{
						"time": 0.8,
						"angle": -12.2,
						"curve": [ 0.25, 0, 0.75, 1 ]
					},
					{ "time": 1.0667, "angle": 0 }
				]
			}
		}
	}
}
}