{
"skeleton": { "hash": "HOVA9cFk+s2H76K006wd72fBuZQ", "spine": "3.7.94", "width": 513.85, "height": 486, "images": "./images/", "audio": "H:/Phuongnt/2008/CG/nohu" },
"bones": [
	{ "name": "root" },
	{ "name": "bg_scale", "parent": "root", "y": 149.61 },
	{ "name": "bg_rotation", "parent": "bg_scale", "x": 0.42, "y": 0.89 },
	{ "name": "cloud1", "parent": "root", "x": -158.91, "y": 303.09 },
	{ "name": "cloud2", "parent": "root", "x": 206.44, "y": 64.67 },
	{ "name": "bone2", "parent": "root", "x": -2.24, "y": 150.6 },
	{ "name": "bone3", "parent": "root", "x": -2.24, "y": 150.6 },
	{ "name": "bone4", "parent": "root", "x": -2.24, "y": 150.6 }
],
"slots": [
	{ "name": "cloud", "bone": "cloud1", "attachment": "cloud" },
	{ "name": "tsl_bg2", "bone": "root", "attachment": "tsl_bg2" },
	{ "name": "tsl_bg1", "bone": "bg_rotation", "attachment": "tsl_bg1" },
	{ "name": "cloud4", "bone": "cloud2", "attachment": "cloud" },
	{ "name": "tsl_star", "bone": "root", "attachment": "tsl_star" },
	{ "name": "tsl10", "bone": "bone4", "attachment": "tsl3" },
	{ "name": "tsl8", "bone": "bone3", "attachment": "tsl2" },
	{ "name": "tsl6", "bone": "bone2", "attachment": "tsl1" }
],
"skins": {
	"default": {
		"cloud": {
			"cloud": { "x": 0.32, "y": 3.42, "width": 177, "height": 83 }
		},
		"cloud4": {
			"cloud": { "x": 1.66, "y": 3.48, "scaleX": 0.663, "scaleY": 0.663, "width": 177, "height": 83 }
		},
		"tsl10": {
			"tsl3": { "x": 1.24, "y": -72.6, "width": 174, "height": 82 }
		},
		"tsl6": {
			"tsl1": { "x": 1.24, "y": 83.9, "width": 270, "height": 77 }
		},
		"tsl8": {
			"tsl2": { "x": 1.74, "y": 4.4, "width": 187, "height": 86 }
		},
		"tsl_bg1": {
			"tsl_bg1": { "x": -0.12, "y": 0.11, "width": 327, "height": 328 }
		},
		"tsl_bg2": {
			"tsl_bg2": { "x": 0.61, "y": 152, "width": 486, "height": 486 }
		},
		"tsl_star": {
			"tsl_star": { "x": -7.37, "y": 6, "width": 264, "height": 88 }
		}
	}
},
"animations": {
	"idle": {
		"bones": {
			"bg_rotation": {
				"rotate": [
					{ "time": 0, "angle": 0 },
					{ "time": 0.3333, "angle": 120 },
					{ "time": 0.6667, "angle": -120 },
					{ "time": 1, "angle": 0 }
				]
			},
			"bone2": {
				"rotate": [
					{
						"time": 0,
						"angle": 0,
						"curve": [ 0.25, 0, 0.75, 1 ]
					},
					{
						"time": 0.2333,
						"angle": 6.02,
						"curve": [ 0.25, 0, 0.75, 1 ]
					},
					{
						"time": 0.3667,
						"angle": -8.11,
						"curve": [ 0.25, 0, 0.75, 1 ]
					},
					{
						"time": 0.5,
						"angle": 8.34,
						"curve": [ 0.25, 0, 0.75, 1 ]
					},
					{ "time": 0.6333, "angle": 0 }
				],
				"scale": [
					{
						"time": 0,
						"x": 0.977,
						"y": 0.977,
						"curve": [ 0.377, 0.61, 0.72, 1 ]
					},
					{ "time": 0.0667, "x": 1, "y": 1, "curve": "stepped" },
					{
						"time": 0.5,
						"x": 1,
						"y": 1,
						"curve": [ 0.25, 0, 0.75, 1 ]
					},
					{
						"time": 0.7667,
						"x": 0.85,
						"y": 0.85,
						"curve": [ 0.247, 0, 0.631, 0.53 ]
					},
					{
						"time": 0.9333,
						"x": 0.936,
						"y": 0.936,
						"curve": [ 0.379, 0.53, 0.746, 1 ]
					},
					{ "time": 1, "x": 0.977, "y": 0.977 }
				]
			},
			"bone3": {
				"rotate": [
					{
						"time": 0,
						"angle": 0,
						"curve": [ 0.25, 0, 0.75, 1 ]
					},
					{
						"time": 0.1667,
						"angle": 6.02,
						"curve": [ 0.25, 0, 0.75, 1 ]
					},
					{
						"time": 0.3,
						"angle": -8.11,
						"curve": [ 0.25, 0, 0.75, 1 ]
					},
					{
						"time": 0.4333,
						"angle": 8.34,
						"curve": [ 0.25, 0, 0.75, 1 ]
					},
					{ "time": 0.5667, "angle": 0 }
				],
				"scale": [
					{
						"time": 0,
						"x": 0.936,
						"y": 0.936,
						"curve": [ 0.379, 0.53, 0.746, 1 ]
					},
					{ "time": 0.1333, "x": 1, "y": 1, "curve": "stepped" },
					{
						"time": 0.5667,
						"x": 1,
						"y": 1,
						"curve": [ 0.25, 0, 0.75, 1 ]
					},
					{
						"time": 0.8333,
						"x": 0.85,
						"y": 0.85,
						"curve": [ 0.247, 0, 0.631, 0.53 ]
					},
					{ "time": 1, "x": 0.936, "y": 0.936 }
				]
			},
			"bone4": {
				"rotate": [
					{
						"time": 0,
						"angle": 0,
						"curve": [ 0.25, 0, 0.75, 1 ]
					},
					{
						"time": 0.2333,
						"angle": 6.02,
						"curve": [ 0.25, 0, 0.75, 1 ]
					},
					{
						"time": 0.3333,
						"angle": -8.11,
						"curve": [ 0.25, 0, 0.75, 1 ]
					},
					{
						"time": 0.5,
						"angle": 8.34,
						"curve": [ 0.25, 0, 0.75, 1 ]
					},
					{ "time": 0.6333, "angle": 0 }
				],
				"scale": [
					{
						"time": 0,
						"x": 0.892,
						"y": 0.892,
						"curve": [ 0.324, 0.31, 0.665, 0.66 ]
					},
					{
						"time": 0.0667,
						"x": 0.936,
						"y": 0.936,
						"curve": [ 0.379, 0.53, 0.746, 1 ]
					},
					{ "time": 0.2, "x": 1, "y": 1, "curve": "stepped" },
					{
						"time": 0.6333,
						"x": 1,
						"y": 1,
						"curve": [ 0.25, 0, 0.75, 1 ]
					},
					{
						"time": 0.9,
						"x": 0.85,
						"y": 0.85,
						"curve": [ 0.265, 0, 0.618, 0.43 ]
					},
					{ "time": 1, "x": 0.892, "y": 0.892 }
				]
			}
		}
	},
	"start": {
		"slots": {
			"cloud": {
				"color": [
					{ "time": 0, "color": "ffffff00", "curve": "stepped" },
					{ "time": 0.2, "color": "ffffff00" },
					{ "time": 0.5667, "color": "ffffffff" }
				]
			},
			"cloud4": {
				"color": [
					{ "time": 0, "color": "ffffff00", "curve": "stepped" },
					{ "time": 0.3667, "color": "ffffff00" },
					{ "time": 0.8, "color": "ffffffff" }
				]
			}
		},
		"bones": {
			"cloud1": {
				"translate": [
					{
						"time": 0,
						"x": 39.71,
						"y": 0,
						"curve": [ 0.241, 0.5, 0.578, 1 ]
					},
					{
						"time": 0.2,
						"x": 85.86,
						"y": 0,
						"curve": [ 0.241, 0.5, 0.578, 1 ]
					},
					{ "time": 0.5667, "x": 0, "y": 0 }
				]
			},
			"cloud2": {
				"translate": [
					{ "time": 0, "x": -102.94, "y": 0, "curve": "stepped" },
					{
						"time": 0.3667,
						"x": -102.94,
						"y": 0,
						"curve": [ 0.241, 0.5, 0.578, 1 ]
					},
					{ "time": 0.8, "x": 0, "y": 0 }
				]
			},
			"bg_rotation": {
				"rotate": [
					{ "time": 0, "angle": 0 },
					{ "time": 0.3333, "angle": 120 },
					{ "time": 0.6667, "angle": -120 },
					{ "time": 1, "angle": 0 }
				]
			},
			"bone2": {
				"rotate": [
					{
						"time": 0,
						"angle": 0,
						"curve": [ 0.25, 0, 0.75, 1 ]
					},
					{
						"time": 0.1667,
						"angle": 6.02,
						"curve": [ 0.25, 0, 0.75, 1 ]
					},
					{
						"time": 0.3,
						"angle": -8.11,
						"curve": [ 0.25, 0, 0.75, 1 ]
					},
					{
						"time": 0.4333,
						"angle": 8.34,
						"curve": [ 0.25, 0, 0.75, 1 ]
					},
					{ "time": 0.5667, "angle": 0, "curve": "stepped" },
					{ "time": 1, "angle": 0 }
				],
				"scale": [
					{
						"time": 0,
						"x": 0.07,
						"y": 0.07,
						"curve": [ 0.259, 0.67, 0.717, 1 ]
					},
					{ "time": 0.3333, "x": 1, "y": 1, "curve": "stepped" },
					{
						"time": 0.5333,
						"x": 1,
						"y": 1,
						"curve": [ 0.25, 0, 0.75, 1 ]
					},
					{
						"time": 0.8333,
						"x": 0.85,
						"y": 0.85,
						"curve": [ 0.25, 0, 0.75, 1 ]
					},
					{ "time": 1, "x": 0.977, "y": 0.977 }
				]
			},
			"bone3": {
				"rotate": [
					{
						"time": 0,
						"angle": 0,
						"curve": [ 0.25, 0, 0.75, 1 ]
					},
					{
						"time": 0.1667,
						"angle": 6.02,
						"curve": [ 0.25, 0, 0.75, 1 ]
					},
					{
						"time": 0.3,
						"angle": -8.11,
						"curve": [ 0.25, 0, 0.75, 1 ]
					},
					{
						"time": 0.4333,
						"angle": 8.34,
						"curve": [ 0.25, 0, 0.75, 1 ]
					},
					{ "time": 0.5667, "angle": 0, "curve": "stepped" },
					{ "time": 1, "angle": 0 }
				],
				"scale": [
					{
						"time": 0,
						"x": 0.07,
						"y": 0.07,
						"curve": [ 0.259, 0.67, 0.717, 1 ]
					},
					{ "time": 0.3333, "x": 1, "y": 1, "curve": "stepped" },
					{
						"time": 0.5333,
						"x": 1,
						"y": 1,
						"curve": [ 0.25, 0, 0.75, 1 ]
					},
					{
						"time": 0.8333,
						"x": 0.85,
						"y": 0.85,
						"curve": [ 0.25, 0, 0.75, 1 ]
					},
					{ "time": 1, "x": 0.936, "y": 0.936 }
				]
			},
			"bone4": {
				"rotate": [
					{
						"time": 0,
						"angle": 0,
						"curve": [ 0.25, 0, 0.75, 1 ]
					},
					{
						"time": 0.1667,
						"angle": 6.02,
						"curve": [ 0.25, 0, 0.75, 1 ]
					},
					{
						"time": 0.3,
						"angle": -8.11,
						"curve": [ 0.25, 0, 0.75, 1 ]
					},
					{
						"time": 0.4333,
						"angle": 8.34,
						"curve": [ 0.25, 0, 0.75, 1 ]
					},
					{ "time": 0.5667, "angle": 0, "curve": "stepped" },
					{ "time": 1, "angle": 0 }
				],
				"scale": [
					{
						"time": 0,
						"x": 0.07,
						"y": 0.07,
						"curve": [ 0.259, 0.67, 0.717, 1 ]
					},
					{ "time": 0.3333, "x": 1, "y": 1, "curve": "stepped" },
					{
						"time": 0.5333,
						"x": 1,
						"y": 1,
						"curve": [ 0.25, 0, 0.75, 1 ]
					},
					{
						"time": 0.8333,
						"x": 0.85,
						"y": 0.85,
						"curve": [ 0.25, 0, 0.75, 1 ]
					},
					{ "time": 1, "x": 0.892, "y": 0.892 }
				]
			}
		}
	}
}
}