{
"skeleton": { "hash": "BYaszUcP38zQVROZ273boae0NRg", "spine": "3.7.94", "width": 612, "height": 385, "images": "./images/", "audio": "H:/Phuongnt/2008/ChienBinh (VuongQuocHu)" },
"bones": [
	{ "name": "root" },
	{ "name": "thanglon1", "parent": "root", "x": -37, "y": 176 },
	{ "name": "thanglon2", "parent": "root", "x": 37, "y": 176 },
	{ "name": "lightray", "parent": "root", "x": -20 },
	{ "name": "lightray3", "parent": "lightray", "x": 20 },
	{ "name": "lightray4", "parent": "lightray", "x": 20 },
	{ "name": "lightray5", "parent": "lightray", "x": 20 },
	{ "name": "lightray2", "parent": "lightray", "x": 20 },
	{ "name": "lightray1", "parent": "lightray", "x": 20 }
],
"slots": [
	{ "name": "nhansu", "bone": "root", "attachment": "nhansu" },
	{ "name": "light_mask", "bone": "root", "attachment": "light_mask" },
	{ "name": "lightray3", "bone": "lightray3", "attachment": "lightray" },
	{ "name": "lightray4", "bone": "lightray4", "attachment": "lightray" },
	{ "name": "lightray2", "bone": "lightray2", "attachment": "lightray" },
	{ "name": "lightray5", "bone": "lightray5", "attachment": "lightray" },
	{ "name": "lightray1", "bone": "lightray1", "attachment": "lightray" },
	{ "name": "lightray_bg", "bone": "lightray", "attachment": "lightray_bg" },
	{ "name": "thanglon2", "bone": "thanglon2", "attachment": "thanglon2" },
	{ "name": "thanglon1", "bone": "thanglon1", "attachment": "thanglon1" }
],
"skins": {
	"default": {
		"light_mask": {
			"light_mask": {
				"type": "clipping",
				"end": "lightray_bg",
				"vertexCount": 4,
				"vertices": [ -295.13, 56.19, 295.56, 56.86, 296.23, 157.66, -294.46, 160.35 ],
				"color": "ce3a3aff"
			}
		},
		"lightray1": {
			"lightray": { "y": 110, "width": 52, "height": 92 }
		},
		"lightray2": {
			"lightray": { "y": 110, "width": 52, "height": 92 }
		},
		"lightray3": {
			"lightray": { "y": 110, "width": 52, "height": 92 }
		},
		"lightray4": {
			"lightray": { "y": 110, "width": 52, "height": 92 }
		},
		"lightray5": {
			"lightray": { "y": 110, "width": 52, "height": 92 }
		},
		"lightray_bg": {
			"lightray_bg": { "x": 20, "width": 300, "height": 300 }
		},
		"nhansu": {
			"nhansu": { "x": -12.65, "y": 291.65, "width": 226, "height": 230 }
		},
		"thanglon1": {
			"thanglon1": { "x": -66, "y": 88, "width": 298, "height": 92 }
		},
		"thanglon2": {
			"thanglon2": { "x": 107, "y": 85.5, "width": 198, "height": 87 }
		}
	}
},
"animations": {
	"loop": {
		"slots": {
			"lightray1": {
				"color": [
					{
						"time": 0,
						"color": "ffffffff",
						"curve": [ 0.25, 0, 0.75, 1 ]
					},
					{
						"time": 0.4333,
						"color": "ffffff00",
						"curve": [ 0.25, 0, 0.75, 1 ]
					},
					{
						"time": 1.3,
						"color": "ffffffff",
						"curve": [ 0.25, 0, 0.75, 1 ]
					},
					{ "time": 2.1667, "color": "ffffff00" }
				]
			},
			"lightray2": {
				"color": [
					{
						"time": 0,
						"color": "ffffff7f",
						"curve": [ 0.375, 0.5, 0.75, 1 ]
					},
					{ "time": 0.4333, "color": "ffffff00", "curve": "stepped" },
					{
						"time": 0.8667,
						"color": "ffffff00",
						"curve": [ 0.25, 0, 0.75, 1 ]
					},
					{
						"time": 1.7333,
						"color": "ffffffff",
						"curve": [ 0.25, 0, 0.625, 0.5 ]
					},
					{ "time": 2.1667, "color": "ffffff7f" }
				]
			},
			"lightray3": {
				"color": [
					{
						"time": 0,
						"color": "ffffffff",
						"curve": [ 0.25, 0, 0.75, 1 ]
					},
					{ "time": 0.8667, "color": "ffffff00", "curve": "stepped" },
					{
						"time": 1.3,
						"color": "ffffff00",
						"curve": [ 0.25, 0, 0.75, 1 ]
					},
					{ "time": 2.1667, "color": "ffffffff" }
				]
			},
			"lightray4": {
				"color": [
					{
						"time": 0,
						"color": "ffffff7f",
						"curve": [ 0.375, 0.5, 0.75, 1 ]
					},
					{
						"time": 0.4333,
						"color": "ffffffff",
						"curve": [ 0.25, 0, 0.75, 1 ]
					},
					{ "time": 1.3, "color": "ffffff00", "curve": "stepped" },
					{
						"time": 1.7333,
						"color": "ffffff00",
						"curve": [ 0.25, 0, 0.625, 0.5 ]
					},
					{ "time": 2.1667, "color": "ffffff7f" }
				]
			},
			"lightray5": {
				"color": [
					{
						"time": 0,
						"color": "ffffff00",
						"curve": [ 0.25, 0, 0.75, 1 ]
					},
					{
						"time": 0.8667,
						"color": "ffffffff",
						"curve": [ 0.25, 0, 0.75, 1 ]
					},
					{ "time": 1.7333, "color": "ffffff00", "curve": "stepped" },
					{ "time": 2.1667, "color": "ffffff00" }
				]
			}
		},
		"bones": {
			"thanglon1": {
				"scale": [
					{
						"time": 0,
						"x": 1,
						"y": 1,
						"curve": [ 0.347, 0.83, 0.75, 1 ]
					},
					{
						"time": 0.1667,
						"x": 0.8,
						"y": 0.8,
						"curve": [ 0.347, 0.83, 0.75, 1 ]
					},
					{
						"time": 0.3333,
						"x": 1.25,
						"y": 1.25,
						"curve": [ 0.25, 0, 0.75, 1 ]
					},
					{
						"time": 0.4333,
						"x": 0.97,
						"y": 0.97,
						"curve": [ 0.25, 0, 0.75, 1 ]
					},
					{ "time": 0.5667, "x": 1, "y": 1, "curve": "stepped" },
					{
						"time": 1.0667,
						"x": 1,
						"y": 1,
						"curve": [ 0.347, 0.83, 0.75, 1 ]
					},
					{
						"time": 1.2333,
						"x": 0.8,
						"y": 0.8,
						"curve": [ 0.347, 0.83, 0.75, 1 ]
					},
					{
						"time": 1.4,
						"x": 1.25,
						"y": 1.25,
						"curve": [ 0.25, 0, 0.75, 1 ]
					},
					{
						"time": 1.5,
						"x": 0.97,
						"y": 0.97,
						"curve": [ 0.25, 0, 0.75, 1 ]
					},
					{ "time": 1.6333, "x": 1, "y": 1, "curve": "stepped" },
					{ "time": 2.1667, "x": 1, "y": 1 }
				]
			},
			"lightray3": {
				"rotate": [
					{ "time": 0, "angle": 0 },
					{ "time": 0.8667, "angle": -63.82 },
					{ "time": 1.0333, "angle": -76.09 },
					{ "time": 1.0667, "angle": 180 },
					{ "time": 1.1, "angle": 78.55 },
					{ "time": 1.3, "angle": 63.82 },
					{ "time": 2.1667, "angle": 0 }
				]
			},
			"lightray1": {
				"rotate": [
					{ "time": 0, "angle": -63.82 },
					{ "time": 0.1667, "angle": -76.09 },
					{ "time": 0.2, "angle": 180 },
					{ "time": 0.2333, "angle": 78.55 },
					{ "time": 0.4333, "angle": 63.82 },
					{ "time": 1.3, "angle": 0 },
					{ "time": 2.1667, "angle": -63.82 }
				]
			},
			"lightray2": {
				"rotate": [
					{ "time": 0, "angle": -31.91 },
					{ "time": 0.4333, "angle": -63.82 },
					{ "time": 0.6, "angle": -76.09 },
					{ "time": 0.6333, "angle": 180 },
					{ "time": 0.6667, "angle": 78.55 },
					{ "time": 0.8667, "angle": 63.82 },
					{ "time": 1.7333, "angle": 0 },
					{ "time": 2.1667, "angle": -31.91 }
				]
			},
			"lightray4": {
				"rotate": [
					{ "time": 0, "angle": 31.91 },
					{ "time": 0.4333, "angle": 0 },
					{ "time": 1.3, "angle": -63.82 },
					{ "time": 1.4667, "angle": -76.09 },
					{ "time": 1.5, "angle": 180 },
					{ "time": 1.5333, "angle": 78.55 },
					{ "time": 1.7333, "angle": 63.82 },
					{ "time": 2.1667, "angle": 31.91 }
				]
			},
			"lightray5": {
				"rotate": [
					{ "time": 0, "angle": 63.82 },
					{ "time": 0.8667, "angle": 0 },
					{ "time": 1.7333, "angle": -63.82 },
					{ "time": 1.9, "angle": -76.09 },
					{ "time": 1.9333, "angle": 180 },
					{ "time": 1.9667, "angle": 78.55 },
					{ "time": 2.1667, "angle": 63.82 }
				]
			},
			"thanglon2": {
				"scale": [
					{ "time": 0, "x": 1, "y": 1, "curve": "stepped" },
					{
						"time": 0.0667,
						"x": 1,
						"y": 1,
						"curve": [ 0.25, 0, 0.75, 1 ]
					},
					{
						"time": 0.2333,
						"x": 0.8,
						"y": 0.8,
						"curve": [ 0.347, 0.83, 0.75, 1 ]
					},
					{
						"time": 0.4,
						"x": 1.2,
						"y": 1.2,
						"curve": [ 0.25, 0, 0.75, 1 ]
					},
					{
						"time": 0.5,
						"x": 0.97,
						"y": 0.97,
						"curve": [ 0.25, 0, 0.75, 1 ]
					},
					{ "time": 0.6333, "x": 1, "y": 1, "curve": "stepped" },
					{
						"time": 1.1333,
						"x": 1,
						"y": 1,
						"curve": [ 0.347, 0.83, 0.75, 1 ]
					},
					{
						"time": 1.3,
						"x": 0.8,
						"y": 0.8,
						"curve": [ 0.347, 0.83, 0.75, 1 ]
					},
					{
						"time": 1.4667,
						"x": 1.2,
						"y": 1.2,
						"curve": [ 0.25, 0, 0.75, 1 ]
					},
					{
						"time": 1.5667,
						"x": 0.97,
						"y": 0.97,
						"curve": [ 0.25, 0, 0.75, 1 ]
					},
					{ "time": 1.7, "x": 1, "y": 1, "curve": "stepped" },
					{ "time": 2.1667, "x": 1, "y": 1 }
				]
			}
		}
	}
}
}