info face=numbonus-export size=32 bold=0 italic=0 charset="" unicode=0 stretchH=100 smooth=1 aa=1 padding=0,0,0,0 spacing=1,1
common lineHeight=49 base=26 scaleW=295 scaleH=287 pages=1 packed=0 alphaChnl=1 redChnl=0 greenChnl=0 blueChnl=0
page id=0 file="numbonus-export.png"
chars count=14
char id=48 x=189 y=191 width=60 height=95 xoffset=0 yoffset=-46 xadvance=63 page=0 chnl=0 letter="0"
char id=49 x=250 y=191 width=44 height=95 xoffset=0 yoffset=-46 xadvance=47 page=0 chnl=0 letter="1"
char id=50 x=67 y=0 width=62 height=95 xoffset=0 yoffset=-46 xadvance=65 page=0 chnl=0 letter="2"
char id=51 x=126 y=96 width=62 height=95 xoffset=0 yoffset=-46 xadvance=65 page=0 chnl=0 letter="3"
char id=52 x=0 y=0 width=66 height=94 xoffset=0 yoffset=-45 xadvance=69 page=0 chnl=0 letter="4"
char id=53 x=126 y=192 width=62 height=94 xoffset=0 yoffset=-45 xadvance=65 page=0 chnl=0 letter="5"
char id=54 x=63 y=168 width=62 height=95 xoffset=0 yoffset=-46 xadvance=65 page=0 chnl=0 letter="6"
char id=55 x=130 y=0 width=61 height=94 xoffset=0 yoffset=-45 xadvance=64 page=0 chnl=0 letter="7"
char id=56 x=189 y=95 width=61 height=95 xoffset=0 yoffset=-46 xadvance=64 page=0 chnl=0 letter="8"
char id=57 x=0 y=168 width=62 height=95 xoffset=0 yoffset=-46 xadvance=65 page=0 chnl=0 letter="9"
char id=46 x=65 y=96 width=26 height=34 xoffset=0 yoffset=15 xadvance=29 page=0 chnl=0 letter="."
char id=43 x=0 y=95 width=64 height=72 xoffset=0 yoffset=-34 xadvance=67 page=0 chnl=0 letter="+"
char id=32 x=0 y=0 width=0 height=0 xoffset=0 yoffset=0 xadvance=0 page=0 chnl=0 letter=" "
char id=9 x=0 y=0 width=0 height=0 xoffset=0 yoffset=0 xadvance=0 page=0 chnl=0 letter="	"

kernings count=0
